%YAML 1.1
%TAG !u! tag:unity3d.com,2011:
--- !u!74 &7400000
AnimationClip:
  m_ObjectHideFlags: 0
  m_CorrespondingSourceObject: {fileID: 0}
  m_PrefabInstance: {fileID: 0}
  m_PrefabAsset: {fileID: 0}
  m_Name: Dead
  serializedVersion: 6
  m_Legacy: 0
  m_Compressed: 0
  m_UseHighQualityCurve: 1
  m_RotationCurves: []
  m_CompressedRotationCurves: []
  m_EulerCurves: []
  m_PositionCurves: []
  m_ScaleCurves: []
  m_FloatCurves: []
  m_PPtrCurves:
  - curve:
    - time: 0
      value: {fileID: 21300000, guid: 4a3783e69d844884d98dae12ff0a9585, type: 3}
    - time: 0.083333336
      value: {fileID: 21300000, guid: 1f5a4a9bd4fdb754f83f12cf4fa4a53b, type: 3}
    - time: 0.16666667
      value: {fileID: 21300000, guid: 03122e1b989539041b2cf4f69e0bdfd3, type: 3}
    - time: 0.25
      value: {fileID: 21300000, guid: 543bb0e9c1d7a184eae4d9587b0b5ea0, type: 3}
    - time: 0.33333334
      value: {fileID: 21300000, guid: c9b40ac4959d9f94b844b2e0fba8a956, type: 3}
    - time: 0.41666666
      value: {fileID: 21300000, guid: 7a02a41800deeb443b1cdea9f49707e4, type: 3}
    - time: 0.5
      value: {fileID: 21300000, guid: d8c3c313563b0484593096657b485186, type: 3}
    - time: 0.5833333
      value: {fileID: 21300000, guid: 695d79e6fc69eb94ab17a34bf959c348, type: 3}
    attribute: m_Sprite
    path: 
    classID: 212
    script: {fileID: 0}
  m_SampleRate: 12
  m_WrapMode: 0
  m_Bounds:
    m_Center: {x: 0, y: 0, z: 0}
    m_Extent: {x: 0, y: 0, z: 0}
  m_ClipBindingConstant:
    genericBindings:
    - serializedVersion: 2
      path: 0
      attribute: 0
      script: {fileID: 0}
      typeID: 212
      customType: 23
      isPPtrCurve: 1
    pptrCurveMapping:
    - {fileID: 21300000, guid: 4a3783e69d844884d98dae12ff0a9585, type: 3}
    - {fileID: 21300000, guid: 1f5a4a9bd4fdb754f83f12cf4fa4a53b, type: 3}
    - {fileID: 21300000, guid: 03122e1b989539041b2cf4f69e0bdfd3, type: 3}
    - {fileID: 21300000, guid: 543bb0e9c1d7a184eae4d9587b0b5ea0, type: 3}
    - {fileID: 21300000, guid: c9b40ac4959d9f94b844b2e0fba8a956, type: 3}
    - {fileID: 21300000, guid: 7a02a41800deeb443b1cdea9f49707e4, type: 3}
    - {fileID: 21300000, guid: d8c3c313563b0484593096657b485186, type: 3}
    - {fileID: 21300000, guid: 695d79e6fc69eb94ab17a34bf959c348, type: 3}
  m_AnimationClipSettings:
    serializedVersion: 2
    m_AdditiveReferencePoseClip: {fileID: 0}
    m_AdditiveReferencePoseTime: 0
    m_StartTime: 0
    m_StopTime: 0.6666666
    m_OrientationOffsetY: 0
    m_Level: 0
    m_CycleOffset: 0
    m_HasAdditiveReferencePose: 0
    m_LoopTime: 0
    m_LoopBlend: 0
    m_LoopBlendOrientation: 0
    m_LoopBlendPositionY: 0
    m_LoopBlendPositionXZ: 0
    m_KeepOriginalOrientation: 0
    m_KeepOriginalPositionY: 1
    m_KeepOriginalPositionXZ: 0
    m_HeightFromFeet: 0
    m_Mirror: 0
  m_EditorCurves: []
  m_EulerEditorCurves: []
  m_HasGenericRootTransform: 0
  m_HasMotionFloatCurves: 0
  m_Events: []
