%YAML 1.1
%TAG !u! tag:unity3d.com,2011:
--- !u!74 &7400000
AnimationClip:
  m_ObjectHideFlags: 0
  m_CorrespondingSourceObject: {fileID: 0}
  m_PrefabInstance: {fileID: 0}
  m_PrefabAsset: {fileID: 0}
  m_Name: Walk
  serializedVersion: 6
  m_Legacy: 0
  m_Compressed: 0
  m_UseHighQualityCurve: 1
  m_RotationCurves: []
  m_CompressedRotationCurves: []
  m_EulerCurves: []
  m_PositionCurves: []
  m_ScaleCurves: []
  m_FloatCurves: []
  m_PPtrCurves:
  - curve:
    - time: 0
      value: {fileID: 21300000, guid: 85c7f98475bad2b4eb459b99e8c1e4ac, type: 3}
    - time: 0.083333336
      value: {fileID: 21300000, guid: f192b67e4be0888458a0ce9b4c42c5c4, type: 3}
    - time: 0.16666667
      value: {fileID: 21300000, guid: 7f97688e89c16174c8dd44c917f4b9de, type: 3}
    - time: 0.25
      value: {fileID: 21300000, guid: 8f608d464e094994aa763b0f7cf6cdf4, type: 3}
    - time: 0.33333334
      value: {fileID: 21300000, guid: 6248946038d0dd74d89683d748278c33, type: 3}
    - time: 0.41666666
      value: {fileID: 21300000, guid: dead4d30246b36b4ba36c6c3c32b016f, type: 3}
    - time: 0.5
      value: {fileID: 21300000, guid: 7d0f13d9b31bc23478c9cdbbb7a50c1d, type: 3}
    - time: 0.5833333
      value: {fileID: 21300000, guid: 33bce9ed96d066349af5e14110c6a9a0, type: 3}
    - time: 0.6666667
      value: {fileID: 21300000, guid: 985a71a9393a2a24797cf60730b2f724, type: 3}
    - time: 0.75
      value: {fileID: 21300000, guid: 7ae73782ff917444fb61a2690395816a, type: 3}
    attribute: m_Sprite
    path: 
    classID: 212
    script: {fileID: 0}
  m_SampleRate: 12
  m_WrapMode: 0
  m_Bounds:
    m_Center: {x: 0, y: 0, z: 0}
    m_Extent: {x: 0, y: 0, z: 0}
  m_ClipBindingConstant:
    genericBindings:
    - serializedVersion: 2
      path: 0
      attribute: 0
      script: {fileID: 0}
      typeID: 212
      customType: 23
      isPPtrCurve: 1
    pptrCurveMapping:
    - {fileID: 21300000, guid: 85c7f98475bad2b4eb459b99e8c1e4ac, type: 3}
    - {fileID: 21300000, guid: f192b67e4be0888458a0ce9b4c42c5c4, type: 3}
    - {fileID: 21300000, guid: 7f97688e89c16174c8dd44c917f4b9de, type: 3}
    - {fileID: 21300000, guid: 8f608d464e094994aa763b0f7cf6cdf4, type: 3}
    - {fileID: 21300000, guid: 6248946038d0dd74d89683d748278c33, type: 3}
    - {fileID: 21300000, guid: dead4d30246b36b4ba36c6c3c32b016f, type: 3}
    - {fileID: 21300000, guid: 7d0f13d9b31bc23478c9cdbbb7a50c1d, type: 3}
    - {fileID: 21300000, guid: 33bce9ed96d066349af5e14110c6a9a0, type: 3}
    - {fileID: 21300000, guid: 985a71a9393a2a24797cf60730b2f724, type: 3}
    - {fileID: 21300000, guid: 7ae73782ff917444fb61a2690395816a, type: 3}
  m_AnimationClipSettings:
    serializedVersion: 2
    m_AdditiveReferencePoseClip: {fileID: 0}
    m_AdditiveReferencePoseTime: 0
    m_StartTime: 0
    m_StopTime: 0.8333333
    m_OrientationOffsetY: 0
    m_Level: 0
    m_CycleOffset: 0
    m_HasAdditiveReferencePose: 0
    m_LoopTime: 1
    m_LoopBlend: 0
    m_LoopBlendOrientation: 0
    m_LoopBlendPositionY: 0
    m_LoopBlendPositionXZ: 0
    m_KeepOriginalOrientation: 0
    m_KeepOriginalPositionY: 1
    m_KeepOriginalPositionXZ: 0
    m_HeightFromFeet: 0
    m_Mirror: 0
  m_EditorCurves: []
  m_EulerEditorCurves: []
  m_HasGenericRootTransform: 0
  m_HasMotionFloatCurves: 0
  m_Events: []
